day,7,8,9,14,15,16,17,18,6,10,11,19,21,12,13,5
2021-05-04,0.43194444444444446,0.27923611111111113,0.26355555555555554,0.08472222222222221,0.12953703703703703,0.16916666666666666,0.3958333333333332,0.025,0.0,0.0,0.0,0.0,0.0,0.0,0.0,0.0
2021-05-05,0.53375,0.29583333333333334,0.8091666666666665,0.3572222222222222,0.2063888888888889,0.35861111111111116,0.22916666666666666,0.0,0.8344444444444447,0.4814444444444444,0.11777777777777777,0.0,0.0,0.0,0.0,0.0
2021-05-06,0.8012499999999998,0.5143055555555555,0.473888888888889,0.11145833333333334,0.20402777777777778,0.6833333333333332,0.06972222222222223,0.0,0.8377777777777776,0.355388888888889,0.19759259259259263,0.0,0.0,0.0,0.0,0.0
2021-05-07,0.5043055555555557,0.327037037037037,0.34988888888888886,0.19246527777777778,0.0756111111111111,0.024444444444444446,0.06805555555555556,0.0,0.0,0.37166666666666676,0.25088888888888883,0.0,0.0,0.0,0.0,0.0
2021-05-09,0.0,0.0,0.0,0.0,0.0,0.0,0.0,0.0,0.0,0.0,0.0,0.8386111111111108,0.4527777777777777,0.0,0.0,0.0
2021-05-10,0.0,0.7709722222222223,0.32716666666666666,0.37944444444444453,0.023425925925925923,0.18555555555555553,0.0,0.0,0.5205555555555557,0.6776851851851852,0.37672222222222224,0.0,0.0,0.19159722222222225,0.0,0.0
2021-05-11,0.45152777777777775,0.8397222222222221,0.834861111111111,0.08840277777777779,0.19708333333333336,0.012638888888888889,0.0,0.0,0.7611111111111108,0.7421296296296296,0.0,0.0,0.0,0.0,0.0,0.0
2021-05-12,0.7833333333333332,0.5731944444444443,0.561111111111111,0.13685185185185186,0.6805555555555555,0.0,0.1801851851851852,0.0,0.0,0.4312037037037038,0.3308333333333333,0.0,0.0,0.32222222222222224,0.19555555555555554,0.0
2021-05-13,0.12215277777777776,0.7183333333333332,0.3323611111111111,0.02175925925925926,0.26583333333333337,0.447222222222222,0.09986111111111112,0.0077777777777777776,0.2911111111111111,0.5250925925925927,0.5095833333333333,0.0,0.0,0.3782407407407408,0.0,0.0
2021-05-14,0.17588888888888887,0.6598611111111111,0.53375,0.14342592592592593,0.2776388888888889,0.38,0.18888888888888886,0.0,0.17509259259259258,0.07541666666666666,0.06055555555555556,0.0,0.0,0.07916666666666666,0.010138888888888888,0.0
2021-05-17,0.8149999999999996,0.5011111111111112,0.4551388888888889,0.1873611111111111,0.08544444444444445,0.4633333333333334,0.016527777777777777,0.0,0.32986111111111116,0.8344444444444443,0.5199074074074073,0.0,0.0,0.7163888888888891,0.4915277777777779,0.0
2021-05-18,0.8324999999999997,0.8352777777777779,0.6619444444444444,0.09305555555555554,0.10256944444444445,0.13194444444444445,0.01625,0.0,0.7449999999999998,0.5621296296296298,0.7279166666666665,0.0,0.0,0.01638888888888889,0.0,0.0
2021-05-19,0.6913888888888889,0.5019444444444443,0.48000000000000004,0.3580555555555557,0.3531944444444444,0.49833333333333346,0.17249999999999993,0.009722222222222222,0.653888888888889,0.5264814814814814,0.6022222222222222,0.0,0.0,0.030694444444444444,0.04694444444444445,0.0
2021-05-20,0.0,0.839444444444444,0.8325925925925924,0.10291666666666667,0.02148148148148148,0.010185185185185184,0.010277777777777778,0.0,0.5470833333333334,0.770972222222222,0.6297222222222222,0.0,0.0,0.7718055555555552,0.0,0.0
2021-05-21,0.0,0.0,0.8366666666666666,0.23462962962962963,0.10347222222222223,0.21708333333333335,0.02527777777777778,0.0,0.36569444444444454,0.4767222222222223,0.09622222222222222,0.0,0.0,0.011527777777777777,0.0,0.5127777777777779
2021-05-22,0.0,0.0,0.0,0.8324999999999999,0.8316666666666669,0.0,0.8372222222222223,0.0,0.0,0.0,0.0,0.0,0.0,0.0,0.8372222222222221,0.0
2021-05-23,0.3175,0.0,0.15916666666666665,0.1691666666666667,0.0,0.0,0.0,0.0,0.8352777777777776,0.16,0.16944444444444443,0.0,0.0,0.3366666666666667,0.3791666666666667,0.8333333333333333
2021-05-24,0.16444444444444445,0.4452777777777778,0.8299999999999998,0.01388888888888889,0.056527777777777774,0.0,0.0675,0.0,0.3308333333333334,0.8363888888888886,0.7361111111111112,0.0,0.0,0.0,0.02340277777777778,0.36972222222222234
2021-05-25,0.5697222222222222,0.8274999999999996,0.8319444444444443,0.15,0.26351851851851854,0.29375000000000007,0.11999999999999998,0.0,0.6922222222222223,0.5848148148148148,0.2639444444444444,0.0,0.0,0.3154166666666666,0.07958333333333334,0.0
2021-05-26,0.6702777777777778,0.83,0.4852777777777777,0.3588888888888889,0.20291666666666663,0.18694444444444444,0.19847222222222222,0.016944444444444443,0.49472222222222234,0.8081944444444442,0.2765740740740741,0.0,0.0,0.0,0.0,0.034999999999999996
2021-05-27,0.5334259259259259,0.8104166666666663,0.423125,0.15648148148148147,0.11597222222222223,0.0,0.29916666666666664,0.0,0.8391666666666667,0.14763888888888888,0.019305555555555555,0.0,0.0,0.02953703703703704,0.03,0.0
2021-05-28,0.7123611111111108,0.8405555555555554,0.5778472222222222,0.20965277777777777,0.07662037037037038,0.01699074074074074,0.0,0.0,0.8352777777777775,0.3141666666666667,0.030277777777777775,0.0,0.0,0.0,0.0,0.0
2021-05-30,0.8394444444444441,0.8272222222222223,0.6861111111111108,0.3138888888888889,0.0,0.0,0.0,0.0,0.8286111111111109,0.7477777777777775,0.6391666666666663,0.0,0.0,0.5083333333333333,0.30694444444444446,0.8408333333333332
2021-05-31,0.3468055555555556,0.515138888888889,0.7804166666666665,0.17986111111111108,0.21,0.008402777777777778,0.0,0.0,0.0,0.5747222222222224,0.0,0.0,0.0,0.0,0.0,0.0
2021-06-01,0.48000000000000004,0.2753472222222222,0.3546111111111111,0.0,0.0,0.0,0.0,0.0,0.0,0.07018518518518518,0.023055555555555555,0.0,0.0,0.01361111111111111,0.0,0.0
2021-06-02,0.03791666666666667,0.014351851851851852,0.08611111111111111,0.01611111111111111,0.008472222222222221,0.0,0.0,0.0,0.0,0.01916666666666667,0.0,0.0,0.0,0.0,0.0,0.0
2021-06-03,0.07208333333333333,0.04597222222222222,0.039375,0.0,0.0,0.0,0.0,0.0,0.0,0.009259259259259259,0.0,0.0,0.0,0.0,0.0,0.0
